955801 9627 525
765084 466329 509
880726 571749 525
916035 308206 525
862929 406311 525
332363 504171 449
127223 339329 443
461984 693283 509
407146 773552 509
319646 548710 470
208831 992609 525
224867 351876 443
215712 576071 470
90839 667127 509
812476 222638 509
275656 320086 389
374425 366926 392
69550 473179 449
667709 983423 525
476170 175213 449
727741 574948 509
906020 939001 476
364969 110856 443
731506 10606 509
457558 938986 525
74109 773355 509
375998 842099 525
880518 705954 525
929802 380413 525
247210 665443 509
944400 765344 525
797191 257174 509
167306 621213 470
455070 950845 525
600211 218689 470
221194 20161 386
611971 477562 470
540341 207966 470
961549 867619 507
27550 682979 509
433566 624749 470
894165 818450 525
666557 187005 509
772956 800383 468
436878 385611 449
123631 625030 470
299783 616135 470
820791 142877 509
780480 612100 509
623365 521991 452
410895 292525 449
866088 290933 525
193549 791554 509
321231 298492 384
624850 868753 525
36008 234779 443
72378 83563 351
258787 731097 509
544237 700802 509
938556 981147 507
868837 851228 419
597832 228012 470
152903 977367 525
516166 967341 525
454977 34251 449
88575 593600 470
159567 376402 443
971946 610090 525
278416 469285 449
430788 990459 525
360337 869123 525
65474 673357 509
770699 188496 509
493253 844438 525
176589 405134 443
84991 211409 383
331177 349658 441
559469 29099 470
413100 694607 509
873069 77469 525
937564 797270 525
273143 634702 509
516588 789392 509
894891 972991 507
612607 517002 452
406582 308692 441
99017 583244 470
542356 839051 525
365111 179039 443
576065 706588 509
584635 415730 470
179908 721866 509
838183 110808 525
951740 474286 525
805224 900061 525
592945 475627 470
304380 432397 449
124968 671091 509
110928 604120 470
843834 866776 419
109769 377668 443
567178 48326 470
304590 124692 443
79033 560955 470
943529 645450 525
215271 858063 525
75364 404220 443
354240 713231 509
162037 698851 509
130290 768201 509
513295 219821 470
4736 927951 525
408207 742464 509
590653 784497 509
326312 380480 441
49157 184325 383
43681 383031 443
305967 105299 443
262031 749581 509
6176 998414 525
83822 823022 509
168138 458118 449
560918 315641 470
556502 316258 470
384587 697423 509
149681 650605 509
845711 761026 525
600183 122610 470
69474 287449 443
211638 238281 443
137266 83991 354
414231 195117 449
986063 852822 507
159628 549789 470
509908 217539 449
962394 337924 525
75276 962084 525
74674 504683 449
315162 59415 443
698929 808838 504
922712 80108 525
631928 935886 525
316763 224623 443
59263 185391 383
601124 279460 470
328190 355458 441
60388 899717 525
951695 439151 525
956878 968647 414
294485 716400 509
7396 268058 443
381883 396888 436
779534 605317 509
575016 98642 470
106739 47703 354
904769 866315 445
690284 70422 509
380722 547922 470
181489 483846 449
503858 719118 509
384301 434081 449
623101 524860 452
29908 87837 351
885288 215903 525
620686 26279 470
290027 160174 443
24570 988232 525
929978 911950 476
734809 646191 504
876549 514519 525
167449 408079 443
748470 256226 509
831461 83245 509
972502 142334 525
367626 775084 509
906197 305254 525
158537 752753 509
744079 740510 362
971925 945095 458
296756 269853 407
429749 631086 509
514188 959868 525
829122 836570 419
169636 836566 509
72628 628264 509
871084 666820 525
549121 67267 470
611084 367656 470
941420 545602 525
156661 645688 509
971081 358012 525
929193 641053 525
107285 276677 443
663941 263395 509
633030 996837 525
698013 256461 509
7239 773046 509
42558 550315 470
888451 870781 445
270376 991719 525
843058 121273 525
656980 959956 525
404100 453486 449
869007 821637 525
692373 178994 509
231117 855945 525
934836 822522 525
989311 194694 525
704774 724814 411
