385867 777463 509
917274 878260 476
205973 735320 509
313644 914193 525
527045 418993 470
745500 265732 509
977612 805010 525
806222 873355 525
762513 461609 509
728098 137215 509
750701 172086 509
525083 348318 470
781410 511845 509
607540 512265 452
438031 429305 387
720922 263871 509
452327 548144 470
913300 42798 525
301355 110845 443
843715 293831 525
140027 867787 525
298370 454894 449
599552 803722 509
123591 432959 449
291030 167003 443
803636 875142 525
317842 697695 509
919218 878647 476
84642 406696 443
681441 439623 509
421746 448182 418
140095 505327 449
582569 708538 509
857643 90799 525
507546 926656 525
226816 669008 509
140555 519692 470
472896 684036 509
465150 831653 509
894377 648929 525
41022 460500 449
900241 417852 525
684965 9772 509
481294 763628 509
549082 138258 470
227249 433875 449
61613 103201 351
327054 563707 470
706679 436040 509
67865 964281 525
37956 827107 509
683912 954547 525
534514 707861 509
366394 881476 525
64452 752636 509
705621 669941 504
236557 200025 443
89103 355616 443
788729 315891 509
359662 227587 443
173000 251658 443
320402 373744 441
903973 426320 525
197175 949051 525
618594 335663 470
137225 313503 443
653013 327712 509
601707 588431 403
786302 617208 509
835460 625911 509
575751 960684 525
357205 338601 441
315699 884602 525
41164 27047 324
618707 273497 470
448 543115 470
245786 498720 449
31829 412269 449
40808 13102 324
242022 256562 363
408451 882170 525
180054 578233 470
161619 899272 525
340145 339674 366
788686 38270 509
973620 350467 525
479000 127213 449
948281 661756 525
608811 707346 509
315628 389210 441
781181 61104 509
149902 133554 375
778072 574371 509
692999 625194 509
751642 597783 509
144614 564851 470
311936 905486 525
179052 357902 443
678057 297089 509
216084 524170 470
671139 272953 509
155865 813979 509
41547 414899 449
549681 599147 434
574820 329947 470
58580 148016 375
60693 501406 449
976851 77838 525
983999 952313 458
726465 26591 509
313230 401308 441
319830 904696 525
472512 108011 449
747805 718930 424
7565 188015 383
613429 393005 470
96693 902398 525
549781 356285 470
808265 827289 450
430230 34243 449
967785 56602 525
855602 826727 525
198393 717633 509
59596 401028 443
248250 116859 443
705029 77167 509
750425 792047 468
955084 158945 525
956654 728462 525
574614 267938 470
426042 751761 509
360597 994523 525
57223 578057 470
482703 297972 449
575003 625443 447
740287 402629 509
208517 770169 509
848971 732697 525
209818 828263 509
250990 332233 407
459519 199951 449
632795 981489 525
278385 523484 470
162418 910472 525
233757 644552 509
179747 433608 449
263050 686242 509
747072 290559 509
873704 438204 525
441960 517611 470
757063 315528 509
542775 894338 525
948546 228130 525
136915 448110 449
702778 7428 509
983829 38116 525
745128 429919 509
233333 32837 443
923513 162356 525
867731 911906 476
862899 676367 525
703226 426654 509
69037 907405 525
987178 933228 507
533395 18253 470
885843 328425 525
869210 207895 525
648690 371014 509
651522 258291 509
492965 322460 449
123998 898605 525
196984 241601 443
93726 70840 351
438019 773850 509
503293 249029 449
345271 809799 509
905973 764668 525
217668 591853 470
942175 960306 414
438089 490610 444
88820 279055 443
628709 458271 509
349542 452612 449
506044 423872 444
308251 572804 470
215688 858862 525
31620 598205 470
873666 367888 525
5102 190043 383
55020 599422 470
471492 556154 470
250609 736209 509
876577 448167 525
176600 402171 443
348148 437689 449
161515 433237 449
320509 968857 525
816971 939532 525
430473 875301 525
778603 587882 509
